{
    "appKeys": {
        "battery_status": 7,
        "daylight_savings": 8,
        "digital_display": 4,
        "hour_numbers": 5,
        "latitude": 1,
        "longitude": 2,
        "moon_phase": 6,
        "second_hand": 3,
        "solarOffset": 12,
        "sunriseHours": 13,
        "sunriseMinutes": 14,
        "sunsetHours": 15,
        "sunsetMinutes": 16,
        "timezoneOffset": 11,
        "tz_bool": 9,
        "tz_offset": 10
    },
    "capabilities": [
        "location"
    ],
    "companyName": "bhakterija",
    "longName": "Solar Watch",
    "projectType": "native",
    "resources": {
        "media": [
            {
                "file": "images/solar-watch.png",
                "name": "IMAGE_SCREENSHOT",
                "type": "png"
            }
        ]
    },
    "sdkVersion": "3",
    "shortName": "Solar Watch",
    "targetPlatforms": [
        "aplite"
    ],
    "uuid": "89cf7751-1be0-4811-973e-a24f9961b7c5",
    "versionCode": 1,
    "versionLabel": "1.0",
    "watchapp": {
        "watchface": true
    }
}
